waveforms/mips_full.vcd
$date
	Tue Jun 16 19:16:42 2026
$end
$version
	Icarus Verilog
$end
$timescale
	1ps
$end
$scope module tb_top $end
$var wire 32 ! alu_a [31:0] $end
$var wire 32 " alu_b [31:0] $end
$var wire 3 # alucontrol [2:0] $end
$var wire 1 $ alusrc $end
$var wire 1 % branch $end
$var wire 32 & dmem_a [31:0] $end
$var wire 32 ' dmem_rd [31:0] $end
$var wire 32 ( dmem_wd [31:0] $end
$var wire 1 ) dmem_we $end
$var wire 1 * memtoreg $end
$var wire 1 + pcsrc $end
$var wire 1 , regdst $end
$var wire 1 - regwrite $end
$var wire 5 . rf_ra1 [4:0] $end
$var wire 5 / rf_ra2 [4:0] $end
$var wire 32 0 rf_rd1 [31:0] $end
$var wire 32 1 rf_rd2 [31:0] $end
$var wire 5 2 rf_wa3 [4:0] $end
$var wire 32 3 rf_wd3 [31:0] $end
$var wire 1 4 rf_we3 $end
$var wire 32 5 writedata [31:0] $end
$var wire 32 6 pc [31:0] $end
$var wire 6 7 opcode [5:0] $end
$var wire 1 8 memwrite $end
$var wire 32 9 instr [31:0] $end
$var wire 6 : funct [5:0] $end
$var wire 32 ; aluout [31:0] $end
$var reg 1 < clk $end
$var reg 1 = reset $end
$scope module dut $end
$var wire 1 < clk $end
$var wire 1 = reset $end
$var wire 32 > writedata [31:0] $end
$var wire 32 ? readdata [31:0] $end
$var wire 32 @ pc [31:0] $end
$var wire 1 8 memwrite $end
$var wire 32 A instr [31:0] $end
$var wire 32 B aluout [31:0] $end
$scope module dmem_unit $end
$var wire 1 < clk $end
$var wire 32 C rd [31:0] $end
$var wire 1 8 we $end
$var wire 32 D wd [31:0] $end
$var wire 32 E a [31:0] $end
$upscope $end
$scope module imem_unit $end
$var wire 32 F rd [31:0] $end
$var wire 32 G a [31:0] $end
$upscope $end
$scope module mips_cpu $end
$var wire 1 < clk $end
$var wire 32 H instr [31:0] $end
$var wire 32 I readdata [31:0] $end
$var wire 1 = reset $end
$var wire 1 J zero $end
$var wire 32 K writedata [31:0] $end
$var wire 1 L regwrite $end
$var wire 1 M regdst $end
$var wire 1 N pcsrc $end
$var wire 32 O pc [31:0] $end
$var wire 1 8 memwrite $end
$var wire 1 P memtoreg $end
$var wire 1 Q alusrc $end
$var wire 32 R aluout [31:0] $end
$var wire 3 S alucontrol [2:0] $end
$scope module c $end
$var wire 6 T funct [5:0] $end
$var wire 6 U opcode [5:0] $end
$var wire 1 N pcsrc $end
$var wire 1 J zero $end
$var wire 1 L regwrite $end
$var wire 1 M regdst $end
$var wire 1 8 memwrite $end
$var wire 1 P memtoreg $end
$var wire 1 V branch $end
$var wire 1 Q alusrc $end
$var wire 2 W aluop [1:0] $end
$var wire 3 X alucontrol [2:0] $end
$scope module aludecoder $end
$var wire 6 Y funct [5:0] $end
$var wire 2 Z aluop [1:0] $end
$var reg 3 [ alucontrol [2:0] $end
$upscope $end
$scope module maindecoder $end
$var wire 6 \ opcode [5:0] $end
$var wire 1 L regwrite $end
$var wire 1 M regdst $end
$var wire 1 8 memwrite $end
$var wire 1 P memtoreg $end
$var wire 1 V branch $end
$var wire 1 Q alusrc $end
$var wire 2 ] aluop [1:0] $end
$var reg 8 ^ controls [7:0] $end
$upscope $end
$upscope $end
$scope module dp $end
$var wire 3 _ alucontrol [2:0] $end
$var wire 1 Q alusrc $end
$var wire 1 < clk $end
$var wire 32 ` instr [31:0] $end
$var wire 1 P memtoreg $end
$var wire 1 N pcsrc $end
$var wire 32 a readdata [31:0] $end
$var wire 1 M regdst $end
$var wire 1 L regwrite $end
$var wire 1 = reset $end
$var wire 1 J zero $end
$var wire 5 b writereg [4:0] $end
$var wire 32 c writedata [31:0] $end
$var wire 32 d srcb [31:0] $end
$var wire 32 e srca [31:0] $end
$var wire 32 f signimmsh [31:0] $end
$var wire 32 g signimm [31:0] $end
$var wire 32 h result [31:0] $end
$var wire 32 i pcplus4 [31:0] $end
$var wire 32 j pcnext [31:0] $end
$var wire 32 k pcbranch [31:0] $end
$var wire 32 l pc [31:0] $end
$var wire 32 m aluout [31:0] $end
$var reg 32 n pcreg [31:0] $end
$scope module alu $end
$var wire 3 o alucontrol [2:0] $end
$var wire 1 J zero $end
$var wire 32 p sum [31:0] $end
$var wire 32 q condinv [31:0] $end
$var wire 32 r b [31:0] $end
$var wire 32 s a [31:0] $end
$var reg 32 t result [31:0] $end
$upscope $end
$scope module immsh $end
$var wire 32 u y [31:0] $end
$var wire 32 v a [31:0] $end
$upscope $end
$scope module pcadd1 $end
$var wire 32 w a [31:0] $end
$var wire 32 x b [31:0] $end
$var wire 32 y y [31:0] $end
$upscope $end
$scope module pcadd2 $end
$var wire 32 z a [31:0] $end
$var wire 32 { b [31:0] $end
$var wire 32 | y [31:0] $end
$upscope $end
$scope module pcmux $end
$var wire 32 } d0 [31:0] $end
$var wire 32 ~ d1 [31:0] $end
$var wire 1 N s $end
$var wire 32 !" y [31:0] $end
$var parameter 32 "" WIDTH $end
$upscope $end
$scope module resmux $end
$var wire 32 #" d0 [31:0] $end
$var wire 32 $" d1 [31:0] $end
$var wire 1 P s $end
$var wire 32 %" y [31:0] $end
$var parameter 32 &" WIDTH $end
$upscope $end
$scope module rf $end
$var wire 1 < clk $end
$var wire 5 '" ra1 [4:0] $end
$var wire 5 (" ra2 [4:0] $end
$var wire 32 )" wd3 [31:0] $end
$var wire 1 L we3 $end
$var wire 5 *" wa3 [4:0] $end
$var wire 32 +" rd2 [31:0] $end
$var wire 32 ," rd1 [31:0] $end
$upscope $end
$scope module se $end
$var wire 16 -" a [15:0] $end
$var wire 32 ." y [31:0] $end
$upscope $end
$scope module srcbmux $end
$var wire 32 /" d0 [31:0] $end
$var wire 32 0" d1 [31:0] $end
$var wire 1 Q s $end
$var wire 32 1" y [31:0] $end
$var parameter 32 2" WIDTH $end
$upscope $end
$scope module wrmux $end
$var wire 5 3" d0 [4:0] $end
$var wire 5 4" d1 [4:0] $end
$var wire 1 M s $end
$var wire 5 5" y [4:0] $end
$var parameter 32 6" WIDTH $end
$upscope $end
$upscope $end
$upscope $end
$upscope $end
$upscope $end
$enddefinitions $end
$comment Show the parameter values. $end
$dumpall
b101 6"
b100000 2"
b100000 &"
b100000 ""
$end
#0
$dumpvars
b10000 5"
b0 4"
b10000 3"
b101 1"
b101 0"
bx /"
b101 ."
b101 -"
b0 ,"
bx +"
b10000 *"
b101 )"
b10000 ("
b0 '"
b101 %"
bx $"
b101 #"
b100 !"
b11000 ~
b100 }
b11000 |
b10100 {
b100 z
b100 y
b100 x
b0 w
b101 v
b10100 u
b101 t
b0 s
b101 r
b101 q
b101 p
b10 o
b0 n
b101 m
b0 l
b11000 k
b100 j
b100 i
b101 h
b101 g
b10100 f
b0 e
b101 d
bx c
b10000 b
bx a
b100000000100000000000000000101 `
b10 _
b10100000 ^
b0 ]
b1000 \
b10 [
b0 Z
b101 Y
b10 X
b0 W
0V
b1000 U
b101 T
b10 S
b101 R
1Q
0P
b0 O
0N
0M
1L
bx K
0J
bx I
b100000000100000000000000000101 H
b0 G
b100000000100000000000000000101 F
b101 E
bx D
bx C
b101 B
b100000000100000000000000000101 A
b0 @
bx ?
bx >
1=
1<
b101 ;
b101 :
b100000000100000000000000000101 9
08
b1000 7
b0 6
bx 5
14
b101 3
b10000 2
bx 1
b0 0
b10000 /
b0 .
1-
0,
0+
0*
0)
bx (
bx '
b101 &
0%
1$
b10 #
b101 "
b0 !
$end
#5000
0=
0<
#10000
b1100 3
b1100 h
b1100 %"
b1100 )"
b1100 &
b1100 ;
b1100 B
b1100 E
b1100 R
b1100 m
b1100 t
b1100 #"
b1100 p
b1100 q
b1100 "
b1100 d
b1100 r
b1100 1"
b110000 f
b110000 u
b110000 {
b10001 2
b10001 b
b10001 *"
b10001 5"
b1100 T
b1100 Y
b1100 g
b1100 v
b1100 ."
b1100 0"
b1100 -"
b10001 /
b10001 ("
b10001 3"
b1100 :
bx (
bx 1
bx 5
bx >
bx D
bx K
bx c
bx +"
bx /"
b1000 j
b1000 !"
b100000000100010000000000001100 9
b100000000100010000000000001100 A
b100000000100010000000000001100 F
b100000000100010000000000001100 H
b100000000100010000000000001100 `
b111000 k
b111000 |
b111000 ~
b1000 i
b1000 y
b1000 z
b1000 }
b100 6
b100 @
b100 G
b100 O
b100 l
b100 n
b100 w
1<
#15000
0<
#20000
b11111111111111111111111111110111 3
b11111111111111111111111111110111 h
b11111111111111111111111111110111 %"
b11111111111111111111111111110111 )"
b11111111111111111111111111110111 &
b11111111111111111111111111110111 ;
b11111111111111111111111111110111 B
b11111111111111111111111111110111 E
b11111111111111111111111111110111 R
b11111111111111111111111111110111 m
b11111111111111111111111111110111 t
b11111111111111111111111111110111 #"
b11111111111111111111111111110111 p
b11111111111111111111111111110111 q
b11111111111111111111111111110111 "
b11111111111111111111111111110111 d
b11111111111111111111111111110111 r
b11111111111111111111111111110111 1"
b11111111111111111111111111011100 f
b11111111111111111111111111011100 u
b11111111111111111111111111011100 {
b10010 2
b10010 b
b10010 *"
b10010 5"
b110111 T
b110111 Y
b11111111111111111111111111110111 g
b11111111111111111111111111110111 v
b11111111111111111111111111110111 ."
b11111111111111111111111111110111 0"
b1111111111110111 -"
b10010 /
b10010 ("
b10010 3"
b11111 4"
b110111 :
bx (
bx 1
bx 5
bx >
bx D
bx K
bx c
bx +"
bx /"
b1100 j
b1100 !"
b100000000100101111111111110111 9
b100000000100101111111111110111 A
b100000000100101111111111110111 F
b100000000100101111111111110111 H
b100000000100101111111111110111 `
b11111111111111111111111111101000 k
b11111111111111111111111111101000 |
b11111111111111111111111111101000 ~
b1100 i
b1100 y
b1100 z
b1100 }
b1000 6
b1000 @
b1000 G
b1000 O
b1000 l
b1000 n
b1000 w
1<
#25000
0<
#30000
b10001 3
b10001 h
b10001 %"
b10001 )"
1,
1M
0$
0Q
b10 W
b10 Z
b10 ]
b1100 q
b10001 &
b10001 ;
b10001 B
b10001 E
b10001 R
b10001 m
b10001 t
b10001 #"
b11000010 ^
b1100 "
b1100 d
b1100 r
b1100 1"
b11111111111111100110000010000000 f
b11111111111111100110000010000000 u
b11111111111111100110000010000000 {
b10001 p
b101 0
b101 !
b101 e
b101 s
b101 ,"
b10011 2
b10011 b
b10011 *"
b10011 5"
b0 U
b0 \
b100000 T
b100000 Y
b11111111111111111001100000100000 g
b11111111111111111001100000100000 v
b11111111111111111001100000100000 ."
b11111111111111111001100000100000 0"
b1001100000100000 -"
b10000 .
b10000 '"
b10001 /
b10001 ("
b10001 3"
b10011 4"
b100000 :
b0 7
b1100 (
b1100 1
b1100 5
b1100 >
b1100 D
b1100 K
b1100 c
b1100 +"
b1100 /"
b10000 j
b10000 !"
b10000100011001100000100000 9
b10000100011001100000100000 A
b10000100011001100000100000 F
b10000100011001100000100000 H
b10000100011001100000100000 `
b11111111111111100110000010010000 k
b11111111111111100110000010010000 |
b11111111111111100110000010010000 ~
b10000 i
b10000 y
b10000 z
b10000 }
b1100 6
b1100 @
b1100 G
b1100 O
b1100 l
b1100 n
b1100 w
1<
#35000
0<
#40000
b11010 3
b11010 h
b11010 %"
b11010 )"
b1000 q
b11010 &
b11010 ;
b11010 B
b11010 E
b11010 R
b11010 m
b11010 t
b11010 #"
b11111111111111111111111111110111 "
b11111111111111111111111111110111 d
b11111111111111111111111111110111 r
b11111111111111111111111111110111 1"
b110 #
b110 S
b110 X
b110 [
b110 _
b110 o
b11111111111111101000000010001000 f
b11111111111111101000000010001000 u
b11111111111111101000000010001000 {
b11010 p
b10001 0
b10001 !
b10001 e
b10001 s
b10001 ,"
b11111111111111111111111111110111 (
b11111111111111111111111111110111 1
b11111111111111111111111111110111 5
b11111111111111111111111111110111 >
b11111111111111111111111111110111 D
b11111111111111111111111111110111 K
b11111111111111111111111111110111 c
b11111111111111111111111111110111 +"
b11111111111111111111111111110111 /"
b10100 2
b10100 b
b10100 *"
b10100 5"
b100010 T
b100010 Y
b11111111111111111010000000100010 g
b11111111111111111010000000100010 v
b11111111111111111010000000100010 ."
b11111111111111111010000000100010 0"
b1010000000100010 -"
b10011 .
b10011 '"
b10010 /
b10010 ("
b10010 3"
b10100 4"
b100010 :
b10100 j
b10100 !"
b10011100101010000000100010 9
b10011100101010000000100010 A
b10011100101010000000100010 F
b10011100101010000000100010 H
b10011100101010000000100010 `
b11111111111111101000000010011100 k
b11111111111111101000000010011100 |
b11111111111111101000000010011100 ~
b10100 i
b10100 y
b10100 z
b10100 }
b10000 6
b10000 @
b10000 G
b10000 O
b10000 l
b10000 n
b10000 w
1<
#45000
0<
#50000
b10000 3
b10000 h
b10000 %"
b10000 )"
b11010 q
b10000 &
b10000 ;
b10000 B
b10000 E
b10000 R
b10000 m
b10000 t
b10000 #"
b101011 p
b11010 "
b11010 d
b11010 r
b11010 1"
b0 #
b0 S
b0 X
b0 [
b0 _
b0 o
b11111111111111101010000010010000 f
b11111111111111101010000010010000 u
b11111111111111101010000010010000 {
b11010 (
b11010 1
b11010 5
b11010 >
b11010 D
b11010 K
b11010 c
b11010 +"
b11010 /"
b10101 2
b10101 b
b10101 *"
b10101 5"
b100100 T
b100100 Y
b11111111111111111010100000100100 g
b11111111111111111010100000100100 v
b11111111111111111010100000100100 ."
b11111111111111111010100000100100 0"
b1010100000100100 -"
b10100 /
b10100 ("
b10100 3"
b10101 4"
b100100 :
b11000 j
b11000 !"
b10011101001010100000100100 9
b10011101001010100000100100 A
b10011101001010100000100100 F
b10011101001010100000100100 H
b10011101001010100000100100 `
b11111111111111101010000010101000 k
b11111111111111101010000010101000 |
b11111111111111101010000010101000 ~
b11000 i
b11000 y
b11000 z
b11000 }
b10100 6
b10100 @
b10100 G
b10100 O
b10100 l
b10100 n
b10100 w
1<
#55000
0<
#60000
0+
0N
b11111111111111111111111111111001 3
b11111111111111111111111111111001 h
b11111111111111111111111111111001 %"
b11111111111111111111111111111001 )"
0J
b11111111111111111111111111111001 &
b11111111111111111111111111111001 ;
b11111111111111111111111111111001 B
b11111111111111111111111111111001 E
b11111111111111111111111111111001 R
b11111111111111111111111111111001 m
b11111111111111111111111111111001 t
b11111111111111111111111111111001 #"
b11111111111111111111111111110011 q
04
0-
0L
0,
0M
1%
1V
b1 W
b1 Z
b1 ]
b1100 "
b1100 d
b1100 r
b1100 1"
b10001 ^
b110 #
b110 S
b110 X
b110 [
b110 _
b110 o
b1000 f
b1000 u
b1000 {
b11111111111111111111111111111001 p
b101 0
b101 !
b101 e
b101 s
b101 ,"
b1100 (
b1100 1
b1100 5
b1100 >
b1100 D
b1100 K
b1100 c
b1100 +"
b1100 /"
b10001 2
b10001 b
b10001 *"
b10001 5"
b100 U
b100 \
b10 T
b10 Y
b10 g
b10 v
b10 ."
b10 0"
b10 -"
b10000 .
b10000 '"
b10001 /
b10001 ("
b10001 3"
b0 4"
b10 :
b100 7
b11100 j
b11100 !"
b10010000100010000000000000010 9
b10010000100010000000000000010 A
b10010000100010000000000000010 F
b10010000100010000000000000010 H
b10010000100010000000000000010 `
b100100 k
b100100 |
b100100 ~
b11100 i
b11100 y
b11100 z
b11100 }
b11000 6
b11000 @
b11000 G
b11000 O
b11000 l
b11000 n
b11000 w
1<
#65000
0<
#70000
b100 q
b10 #
b10 S
b10 X
b10 [
b10 _
b10 o
b100 3
b100 h
b100 %"
b100 )"
1$
1Q
0%
0V
1)
18
b0 W
b0 Z
b0 ]
b100 &
b100 ;
b100 B
b100 E
b100 R
b100 m
b100 t
b100 #"
b100 "
b100 d
b100 r
b100 1"
b101000 ^
b10000 f
b10000 u
b10000 {
b100 p
b0 0
b0 !
b0 e
b0 s
b0 ,"
b11010 (
b11010 1
b11010 5
b11010 >
b11010 D
b11010 K
b11010 c
b11010 +"
b11010 /"
b10100 2
b10100 b
b10100 *"
b10100 5"
b101011 U
b101011 \
b100 T
b100 Y
b100 g
b100 v
b100 ."
b100 0"
b100 -"
b0 .
b0 '"
b10100 /
b10100 ("
b10100 3"
b100 :
b101011 7
b100000 j
b100000 !"
b10101100000101000000000000000100 9
b10101100000101000000000000000100 A
b10101100000101000000000000000100 F
b10101100000101000000000000000100 H
b10101100000101000000000000000100 `
b110000 k
b110000 |
b110000 ~
b100000 i
b100000 y
b100000 z
b100000 }
b11100 6
b11100 @
b11100 G
b11100 O
b11100 l
b11100 n
b11100 w
1<
#75000
0<
#80000
b11010 3
b11010 h
b11010 %"
b11010 )"
14
1-
1L
0)
08
1*
1P
b10100100 ^
b10000 (
b10000 1
b10000 5
b10000 >
b10000 D
b10000 K
b10000 c
b10000 +"
b10000 /"
b10101 2
b10101 b
b10101 *"
b10101 5"
b100011 U
b100011 \
b10101 /
b10101 ("
b10101 3"
b100011 7
b100100 j
b100100 !"
b10001100000101010000000000000100 9
b10001100000101010000000000000100 A
b10001100000101010000000000000100 F
b10001100000101010000000000000100 H
b10001100000101010000000000000100 `
b11010 '
b11010 ?
b11010 C
b11010 I
b11010 a
b11010 $"
b110100 k
b110100 |
b110100 ~
b100100 i
b100100 y
b100100 z
b100100 }
b100000 6
b100000 @
b100000 G
b100000 O
b100000 l
b100000 n
b100000 w
1<
#85000
0<
#90000
1+
1N
1J
bx '
bx ?
bx C
bx I
bx a
bx $"
b0 3
b0 h
b0 %"
b0 )"
b110 #
b110 S
b110 X
b110 [
b110 _
b110 o
b0 &
b0 ;
b0 B
b0 E
b0 R
b0 m
b0 t
b0 #"
04
0-
0L
0$
0Q
1%
1V
0*
0P
b1 W
b1 Z
b1 ]
b0 p
b11111111111111111111111111111111 q
b10001 ^
b0 "
b0 d
b0 r
b0 1"
b11111111111111111111111111011000 f
b11111111111111111111111111011000 u
b11111111111111111111111111011000 {
b0 2
b0 b
b0 *"
b0 5"
b100 U
b100 \
b110110 T
b110110 Y
b11111111111111111111111111110110 g
b11111111111111111111111111110110 v
b11111111111111111111111111110110 ."
b11111111111111111111111111110110 0"
b1111111111110110 -"
b0 /
b0 ("
b0 3"
b11111 4"
b110110 :
b100 7
b0 (
b0 1
b0 5
b0 >
b0 D
b0 K
b0 c
b0 +"
b0 /"
b0 j
b0 !"
b10000000000001111111111110110 9
b10000000000001111111111110110 A
b10000000000001111111111110110 F
b10000000000001111111111110110 H
b10000000000001111111111110110 `
b0 k
b0 |
b0 ~
b101000 i
b101000 y
b101000 z
b101000 }
b100100 6
b100100 @
b100100 G
b100100 O
b100100 l
b100100 n
b100100 w
1<
#95000
0<
#100000
b11010 '
b11010 ?
b11010 C
b11010 I
b11010 a
b11010 $"
b101 3
b101 h
b101 %"
b101 )"
0J
b101 &
b101 ;
b101 B
b101 E
b101 R
b101 m
b101 t
b101 #"
b101 p
b101 q
0+
0N
b10 #
b10 S
b10 X
b10 [
b10 _
b10 o
14
1-
1L
1$
1Q
0%
0V
b0 W
b0 Z
b0 ]
b101 "
b101 d
b101 r
b101 1"
b10100000 ^
b10100 f
b10100 u
b10100 {
b101 (
b101 1
b101 5
b101 >
b101 D
b101 K
b101 c
b101 +"
b101 /"
b10000 2
b10000 b
b10000 *"
b10000 5"
b1000 U
b1000 \
b101 T
b101 Y
b101 g
b101 v
b101 ."
b101 0"
b101 -"
b10000 /
b10000 ("
b10000 3"
b0 4"
b101 :
b1000 7
b100 j
b100 !"
b100000000100000000000000000101 9
b100000000100000000000000000101 A
b100000000100000000000000000101 F
b100000000100000000000000000101 H
b100000000100000000000000000101 `
b11000 k
b11000 |
b11000 ~
b100 i
b100 y
b100 z
b100 }
b0 6
b0 @
b0 G
b0 O
b0 l
b0 n
b0 w
1<
#105000
0<
#110000
b1100 3
b1100 h
b1100 %"
b1100 )"
bx '
bx ?
bx C
bx I
bx a
bx $"
b1100 &
b1100 ;
b1100 B
b1100 E
b1100 R
b1100 m
b1100 t
b1100 #"
b1100 p
b1100 q
b1100 "
b1100 d
b1100 r
b1100 1"
b110000 f
b110000 u
b110000 {
b1100 (
b1100 1
b1100 5
b1100 >
b1100 D
b1100 K
b1100 c
b1100 +"
b1100 /"
b10001 2
b10001 b
b10001 *"
b10001 5"
b1100 T
b1100 Y
b1100 g
b1100 v
b1100 ."
b1100 0"
b1100 -"
b10001 /
b10001 ("
b10001 3"
b1100 :
b1000 j
b1000 !"
b100000000100010000000000001100 9
b100000000100010000000000001100 A
b100000000100010000000000001100 F
b100000000100010000000000001100 H
b100000000100010000000000001100 `
b111000 k
b111000 |
b111000 ~
b1000 i
b1000 y
b1000 z
b1000 }
b100 6
b100 @
b100 G
b100 O
b100 l
b100 n
b100 w
1<
#115000
0<
#120000
b11111111111111111111111111110111 3
b11111111111111111111111111110111 h
b11111111111111111111111111110111 %"
b11111111111111111111111111110111 )"
b11111111111111111111111111110111 &
b11111111111111111111111111110111 ;
b11111111111111111111111111110111 B
b11111111111111111111111111110111 E
b11111111111111111111111111110111 R
b11111111111111111111111111110111 m
b11111111111111111111111111110111 t
b11111111111111111111111111110111 #"
b11111111111111111111111111110111 p
b11111111111111111111111111110111 q
b11111111111111111111111111110111 "
b11111111111111111111111111110111 d
b11111111111111111111111111110111 r
b11111111111111111111111111110111 1"
b11111111111111111111111111011100 f
b11111111111111111111111111011100 u
b11111111111111111111111111011100 {
b11111111111111111111111111110111 (
b11111111111111111111111111110111 1
b11111111111111111111111111110111 5
b11111111111111111111111111110111 >
b11111111111111111111111111110111 D
b11111111111111111111111111110111 K
b11111111111111111111111111110111 c
b11111111111111111111111111110111 +"
b11111111111111111111111111110111 /"
b10010 2
b10010 b
b10010 *"
b10010 5"
b110111 T
b110111 Y
b11111111111111111111111111110111 g
b11111111111111111111111111110111 v
b11111111111111111111111111110111 ."
b11111111111111111111111111110111 0"
b1111111111110111 -"
b10010 /
b10010 ("
b10010 3"
b11111 4"
b110111 :
b1100 j
b1100 !"
b100000000100101111111111110111 9
b100000000100101111111111110111 A
b100000000100101111111111110111 F
b100000000100101111111111110111 H
b100000000100101111111111110111 `
b11111111111111111111111111101000 k
b11111111111111111111111111101000 |
b11111111111111111111111111101000 ~
b1100 i
b1100 y
b1100 z
b1100 }
b1000 6
b1000 @
b1000 G
b1000 O
b1000 l
b1000 n
b1000 w
1<
#125000
0<
#130000
b10001 3
b10001 h
b10001 %"
b10001 )"
1,
1M
0$
0Q
b10 W
b10 Z
b10 ]
b1100 q
b10001 &
b10001 ;
b10001 B
b10001 E
b10001 R
b10001 m
b10001 t
b10001 #"
b11000010 ^
b1100 "
b1100 d
b1100 r
b1100 1"
b11111111111111100110000010000000 f
b11111111111111100110000010000000 u
b11111111111111100110000010000000 {
b10001 p
b101 0
b101 !
b101 e
b101 s
b101 ,"
b1100 (
b1100 1
b1100 5
b1100 >
b1100 D
b1100 K
b1100 c
b1100 +"
b1100 /"
b10011 2
b10011 b
b10011 *"
b10011 5"
b0 U
b0 \
b100000 T
b100000 Y
b11111111111111111001100000100000 g
b11111111111111111001100000100000 v
b11111111111111111001100000100000 ."
b11111111111111111001100000100000 0"
b1001100000100000 -"
b10000 .
b10000 '"
b10001 /
b10001 ("
b10001 3"
b10011 4"
b100000 :
b0 7
b10000 j
b10000 !"
b10000100011001100000100000 9
b10000100011001100000100000 A
b10000100011001100000100000 F
b10000100011001100000100000 H
b10000100011001100000100000 `
b11111111111111100110000010010000 k
b11111111111111100110000010010000 |
b11111111111111100110000010010000 ~
b10000 i
b10000 y
b10000 z
b10000 }
b1100 6
b1100 @
b1100 G
b1100 O
b1100 l
b1100 n
b1100 w
1<
#135000
0<
#140000
b11010 3
b11010 h
b11010 %"
b11010 )"
b1000 q
b11010 &
b11010 ;
b11010 B
b11010 E
b11010 R
b11010 m
b11010 t
b11010 #"
b11111111111111111111111111110111 "
b11111111111111111111111111110111 d
b11111111111111111111111111110111 r
b11111111111111111111111111110111 1"
b110 #
b110 S
b110 X
b110 [
b110 _
b110 o
b11111111111111101000000010001000 f
b11111111111111101000000010001000 u
b11111111111111101000000010001000 {
b11010 p
b10001 0
b10001 !
b10001 e
b10001 s
b10001 ,"
b11111111111111111111111111110111 (
b11111111111111111111111111110111 1
b11111111111111111111111111110111 5
b11111111111111111111111111110111 >
b11111111111111111111111111110111 D
b11111111111111111111111111110111 K
b11111111111111111111111111110111 c
b11111111111111111111111111110111 +"
b11111111111111111111111111110111 /"
b10100 2
b10100 b
b10100 *"
b10100 5"
b100010 T
b100010 Y
b11111111111111111010000000100010 g
b11111111111111111010000000100010 v
b11111111111111111010000000100010 ."
b11111111111111111010000000100010 0"
b1010000000100010 -"
b10011 .
b10011 '"
b10010 /
b10010 ("
b10010 3"
b10100 4"
b100010 :
b10100 j
b10100 !"
b10011100101010000000100010 9
b10011100101010000000100010 A
b10011100101010000000100010 F
b10011100101010000000100010 H
b10011100101010000000100010 `
b11111111111111101000000010011100 k
b11111111111111101000000010011100 |
b11111111111111101000000010011100 ~
b10100 i
b10100 y
b10100 z
b10100 }
b10000 6
b10000 @
b10000 G
b10000 O
b10000 l
b10000 n
b10000 w
1<
#145000
0<
#150000
b10000 3
b10000 h
b10000 %"
b10000 )"
b11010 q
b10000 &
b10000 ;
b10000 B
b10000 E
b10000 R
b10000 m
b10000 t
b10000 #"
b101011 p
b11010 "
b11010 d
b11010 r
b11010 1"
b0 #
b0 S
b0 X
b0 [
b0 _
b0 o
b11111111111111101010000010010000 f
b11111111111111101010000010010000 u
b11111111111111101010000010010000 {
b11010 (
b11010 1
b11010 5
b11010 >
b11010 D
b11010 K
b11010 c
b11010 +"
b11010 /"
b10101 2
b10101 b
b10101 *"
b10101 5"
b100100 T
b100100 Y
b11111111111111111010100000100100 g
b11111111111111111010100000100100 v
b11111111111111111010100000100100 ."
b11111111111111111010100000100100 0"
b1010100000100100 -"
b10100 /
b10100 ("
b10100 3"
b10101 4"
b100100 :
b11000 j
b11000 !"
b10011101001010100000100100 9
b10011101001010100000100100 A
b10011101001010100000100100 F
b10011101001010100000100100 H
b10011101001010100000100100 `
b11111111111111101010000010101000 k
b11111111111111101010000010101000 |
b11111111111111101010000010101000 ~
b11000 i
b11000 y
b11000 z
b11000 }
b10100 6
b10100 @
b10100 G
b10100 O
b10100 l
b10100 n
b10100 w
1<
#155000
0<
#160000
0+
0N
b11111111111111111111111111111001 3
b11111111111111111111111111111001 h
b11111111111111111111111111111001 %"
b11111111111111111111111111111001 )"
0J
b11111111111111111111111111111001 &
b11111111111111111111111111111001 ;
b11111111111111111111111111111001 B
b11111111111111111111111111111001 E
b11111111111111111111111111111001 R
b11111111111111111111111111111001 m
b11111111111111111111111111111001 t
b11111111111111111111111111111001 #"
b11111111111111111111111111110011 q
04
0-
0L
0,
0M
1%
1V
b1 W
b1 Z
b1 ]
b1100 "
b1100 d
b1100 r
b1100 1"
b10001 ^
b110 #
b110 S
b110 X
b110 [
b110 _
b110 o
b1000 f
b1000 u
b1000 {
b11111111111111111111111111111001 p
b101 0
b101 !
b101 e
b101 s
b101 ,"
b1100 (
b1100 1
b1100 5
b1100 >
b1100 D
b1100 K
b1100 c
b1100 +"
b1100 /"
b10001 2
b10001 b
b10001 *"
b10001 5"
b100 U
b100 \
b10 T
b10 Y
b10 g
b10 v
b10 ."
b10 0"
b10 -"
b10000 .
b10000 '"
b10001 /
b10001 ("
b10001 3"
b0 4"
b10 :
b100 7
b11100 j
b11100 !"
b10010000100010000000000000010 9
b10010000100010000000000000010 A
b10010000100010000000000000010 F
b10010000100010000000000000010 H
b10010000100010000000000000010 `
b100100 k
b100100 |
b100100 ~
b11100 i
b11100 y
b11100 z
b11100 }
b11000 6
b11000 @
b11000 G
b11000 O
b11000 l
b11000 n
b11000 w
1<
#165000
0<
#170000
b11010 '
b11010 ?
b11010 C
b11010 I
b11010 a
b11010 $"
b100 q
b10 #
b10 S
b10 X
b10 [
b10 _
b10 o
b100 3
b100 h
b100 %"
b100 )"
1$
1Q
0%
0V
1)
18
b0 W
b0 Z
b0 ]
b100 &
b100 ;
b100 B
b100 E
b100 R
b100 m
b100 t
b100 #"
b100 "
b100 d
b100 r
b100 1"
b101000 ^
b10000 f
b10000 u
b10000 {
b100 p
b0 0
b0 !
b0 e
b0 s
b0 ,"
b11010 (
b11010 1
b11010 5
b11010 >
b11010 D
b11010 K
b11010 c
b11010 +"
b11010 /"
b10100 2
b10100 b
b10100 *"
b10100 5"
b101011 U
b101011 \
b100 T
b100 Y
b100 g
b100 v
b100 ."
b100 0"
b100 -"
b0 .
b0 '"
b10100 /
b10100 ("
b10100 3"
b100 :
b101011 7
b100000 j
b100000 !"
b10101100000101000000000000000100 9
b10101100000101000000000000000100 A
b10101100000101000000000000000100 F
b10101100000101000000000000000100 H
b10101100000101000000000000000100 `
b110000 k
b110000 |
b110000 ~
b100000 i
b100000 y
b100000 z
b100000 }
b11100 6
b11100 @
b11100 G
b11100 O
b11100 l
b11100 n
b11100 w
1<
#175000
0<
#180000
b11010 3
b11010 h
b11010 %"
b11010 )"
14
1-
1L
0)
08
1*
1P
b10100100 ^
b10000 (
b10000 1
b10000 5
b10000 >
b10000 D
b10000 K
b10000 c
b10000 +"
b10000 /"
b10101 2
b10101 b
b10101 *"
b10101 5"
b100011 U
b100011 \
b10101 /
b10101 ("
b10101 3"
b100011 7
b100100 j
b100100 !"
b10001100000101010000000000000100 9
b10001100000101010000000000000100 A
b10001100000101010000000000000100 F
b10001100000101010000000000000100 H
b10001100000101010000000000000100 `
b110100 k
b110100 |
b110100 ~
b100100 i
b100100 y
b100100 z
b100100 }
b100000 6
b100000 @
b100000 G
b100000 O
b100000 l
b100000 n
b100000 w
1<
#185000
0<
